Lab 1: Intro to R
…
## 
##  Column specification 
## cols(
##   .default = col_double(),
##   Station = col_character(),
##   Day = col_character(),
##   Date = col_character(),
##   Time = col_time(format = "")
## )
##  Use `spec()` for the full column specifications.

# print the result for a sanity check
erie

## # A tibble: 730 x 41
##    Station  Year Day   Date  Time  Latitude Longitude Depth Secchi  Temp   Co0
##    <chr>   <dbl> <chr> <chr> <tim>    <dbl>     <dbl> <dbl>  <dbl> <dbl> <dbl>
##  1 LE1      2008 26-J 6/26    NA     41.8      83.1    NA    3.4    NA    NA
##  2 LE2      2008 26-J 6/26    NA     41.8      83.2    NA    4.9    NA    NA
##  3 LE3      2008 26-J 6/26    NA     41.8      83.4    NA    3.2    NA    NA
##  4 LE4      2008 26-J 6/26    NA     41.7      83.4    NA    2.2    NA    NA
##  5 LE5      2008 26-J 6/26    NA     41.7      83.5    NA    0.2    NA    NA
##  6 LE6      2008 26-J 6/26    NA     41.7      83.3    NA    1.4    NA    NA
##  7 LE7      2008 26-J 6/26    NA     41.7      83.2    NA    2.4    NA    NA
##  8 LE8      2008 26-J 6/26    NA     41.8      83.3    NA    1.9    NA    NA
##  9 LE9      2008 26-J 6/26    NA     41.8      83.1    NA    2.5    NA    NA
## 10 LE10     2008 26-J 6/26    NA     41.9      83.2    NA    2.4    NA    NA
## #  with 720 more rows, and 30 more variables: SpCo0 <dbl>, BeamAtten <dbl>,
## #   Transmission <dbl>, chla <dbl>, PC <dbl>, PAR <dbl>, DO <dbl>,
## #   au.chl <dbl>, AquaFluor_PC <dbl>, AquaFluor_CHL <dbl>, Turbidity <dbl>,
## #   TP <dbl>, TDP <dbl>, SRP <dbl>, NH4 <dbl>, NO3 <dbl>, SiO2 <dbl>, Cl <dbl>,
## #   TSS <dbl>, VSS <dbl>, POC <dbl>, PON <dbl>, DOC <dbl>, ExChla <dbl>,
## #   ExPC <dbl>, pMC <dbl>, dMC <dbl>, pMC_LC_MS <dbl>, TCyanos_cells <dbl>,
## #   TCyanos_volume <dbl>
…
